…
# Memory Predicting Production

## Descriptive Stats

``` r
exp2_d %>%
  group_by(Pronoun, PSA, Biographies, M_Acc) %>%
  summarise(m = mean(P_Acc))
```

    ## # A tibble: 24 × 5
    ## # Groups:   Pronoun, PSA, Biographies [12]
    ##    Pronoun PSA       Biographies M_Acc     m
    ##    <fct>   <fct>     <fct>       <int> <dbl>
    ##  1 he/him  Unrelated HeShe           0 0.879
    ##  2 he/him  Unrelated HeShe           1 0.927
    ##  3 he/him  Unrelated They            0 0.812
    ##  4 he/him  Unrelated They            1 0.892
    ##  5 he/him  Gender    HeShe           0 0.781
    ##  6 he/him  Gender    HeShe           1 0.816
    ##  7 he/him  Gender    They            0 0.738
    ##  8 he/him  Gender    They            1 0.867
    ##  9 she/her Unrelated HeShe           0 0.839
    ## 10 she/her Unrelated HeShe           1 0.894
    ## # ℹ 14 more rows
…
exp2_r_dist
```

    ## # A tibble: 48 × 5
    ## # Groups:   Pronoun, PSA, Biographies [12]
    ##    Pronoun PSA       Biographies Combined_Accuracy     n
    ##    <fct>   <fct>     <fct>       <chr>             <int>
    ##  1 he/him  Unrelated HeShe       Both right          243
    ##  2 he/him  Unrelated HeShe       Both wrong            7
    ##  3 he/him  Unrelated HeShe       Memory only          19
    ##  4 he/him  Unrelated HeShe       Production only      51
    ##  5 he/him  Unrelated They        Both right          224
    ##  6 he/him  Unrelated They        Both wrong           13
    ##  7 he/him  Unrelated They        Memory only          27
    ##  8 he/him  Unrelated They        Production only      56
    ##  9 he/him  Gender    HeShe       Both right          209
    ## 10 he/him  Gender    HeShe       Both wrong           14
    ## # ℹ 38 more rows
…
